{
  "project_info": {
    "project_number": "78743870452",
    "firebase_url": "https://healthcomply.firebaseio.com",
    "project_id": "healthcomply",
    "storage_bucket": "healthcomply.appspot.com"
  },
  "client": [
    {
      "client_info": {
        "mobilesdk_app_id": "1:78743870452:android:383fb64fdaa4235c",
        "android_client_info": {
          "package_name": "com.example.christophercioli.healthcomply"
        }
      },
      "oauth_client": [
        {
          "client_id": "78743870452-0a6o4vcnmrcvl8ku3j96s798qoid548t.apps.googleusercontent.com",
          "client_type": 1,
          "android_info": {
            "package_name": "com.example.christophercioli.healthcomply",
            "certificate_hash": "7bb8bed582fe1b053ad7e696982c10dc773ac14c"
          }
        },
        {
          "client_id": "78743870452-d03lb97ko9t8b65qhp6qsmpj9ndjrjrr.apps.googleusercontent.com",
          "client_type": 3
        }
      ],
      "api_key": [
        {
          "current_key": "AIzaSyCsciqpkuKmy04FwsUGBNS7REnJme801Ro"
        }
      ],
      "services": {
        "analytics_service": {
          "status": 1
        },
        "appinvite_service": {
          "status": 2,
          "other_platform_oauth_client": [
            {
              "client_id": "78743870452-d03lb97ko9t8b65qhp6qsmpj9ndjrjrr.apps.googleusercontent.com",
              "client_type": 3
            }
          ]
        },
        "ads_service": {
          "status": 2
        }
      }
    }
  ],
  "configuration_version": "1"
}